﻿Practice_loop.thisRepN,Practice_loop.thisTrialN,Practice_loop.thisN,Practice_loop.thisIndex,TargetImage,thisRow.t,notes,welcome.started,Welcome_message.started,press_space.started,welcome.stopped,press_space.keys,press_space.rt,press_space.duration,instruction.started,instruction_text.started,key_space.started,instruction.stopped,key_space.keys,key_space.rt,key_space.duration,instruction2.started,text.started,instr2_space.started,response_square.started,response_plus.started,response_cross.started,instruction2.stopped,instr2_space.keys,instr2_space.rt,instr2_space.duration,trial.started,participant,session,gender,age,left-handed,do you like that session?,date,expName,psychopyVersion,frameRate,expStart,
,,,,,,,0.021192499960307032,0.024398499983362854,0.024398499983362854,1.7624633999657817,space,1.7363572000176646,None,,,,,,,,,,,,,,,,,,,,,,,False,yes,2024-02-13_14h57.35.326,choice_rrt,2023.2.3,60.37972811964015,2024-02-13 14h57.43.575720 +0100,
,,,,,,,,,,,,,,1.7624848999548703,1.777483099955134,1.777483099955134,3.2281930999597535,space,1.4406850000377744,None,,,,,,,,,,,,,,,,False,yes,2024-02-13_14h57.35.326,choice_rrt,2023.2.3,60.37972811964015,2024-02-13 14h57.43.575720 +0100,
,,,,,,,,,,,,,,,,,,,,,3.2282141000032425,3.2502091999631375,3.2502091999631375,3.2502091999631375,3.2502091999631375,3.2502091999631375,4.695132099965122,space,1.432919499988202,None,,,,,,False,yes,2024-02-13_14h57.35.326,choice_rrt,2023.2.3,60.37972811964015,2024-02-13 14h57.43.575720 +0100,
,,,,,,,,,,,,,,,,,,,,,,,,,,,,,,,4.699569499993231,,,,,,,,,,,,
