﻿thisRow.t,notes,welcome.started,Welcome_message.started,press_space.started,welcome.stopped,press_space.keys,press_space.rt,press_space.duration,instruction.started,instruction_text.started,key_space.started,instruction.stopped,key_space.keys,key_space.rt,key_space.duration,instruction2.started,text.started,instr2_space.started,response_square.started,response_plus.started,response_cross.started,instruction2.stopped,instr2_space.keys,instr2_space.rt,instr2_space.duration,trial.started,practice_cross.started,practice_plus.started,practice_square.started,target_response.started,left_far.started,right_mid.started,right_far.started,left_mid.started,target_image.started,target_image.stopped,trial.stopped,target_response.keys,target_response.rt,target_response.duration,end_screen.started,end_message.started,space_end.started,end_screen.stopped,space_end.keys,space_end.rt,space_end.duration,participant,session,gender,age,left-handed,do you like that session?,date,expName,psychopyVersion,frameRate,expStart,
,,0.024284400045871735,0.027308200020343065,0.027308200020343065,0.8873295000521466,space,0.8531366999959573,None,,,,,,,,,,,,,,,,,,,,,,,,,,,,,,,,,,,,,,,,,,,,False,yes,2024-02-13_14h38.03.940,choice_rrt,2023.2.3,60.0395780837007,2024-02-13 14h38.31.317326 +0100,
,,,,,,,,,0.8873499000328593,0.9033725000335835,0.9033725000335835,1.8048309000441805,space,0.8930649000103585,None,,,,,,,,,,,,,,,,,,,,,,,,,,,,,,,,,,,,,False,yes,2024-02-13_14h38.03.940,choice_rrt,2023.2.3,60.0395780837007,2024-02-13 14h38.31.317326 +0100,
,,,,,,,,,,,,,,,,1.8048835000372492,1.823346000048332,1.823346000048332,1.823346000048332,1.823346000048332,1.823346000048332,3.62091010005679,space,1.7909601000137627,None,,,,,,,,,,,,,,,,,,,,,,,,,,,False,yes,2024-02-13_14h38.03.940,choice_rrt,2023.2.3,60.0395780837007,2024-02-13 14h38.31.317326 +0100,
,,,,,,,,,,,,,,,,,,,,,,,,,,3.6209323000512086,3.639055100036785,3.639055100036785,3.639055100036785,3.639055100036785,4.121549000032246,4.121549000032246,4.121549000032246,4.121549000032246,4.32115050003631,4.553749800019432,6.25508280005306,v,2.60491200000979,None,,,,,,,,,,,,False,yes,2024-02-13_14h38.03.940,choice_rrt,2023.2.3,60.0395780837007,2024-02-13 14h38.31.317326 +0100,
,,,,,,,,,,,,,,,,,,,,,,,,,,,,,,,,,,,,,,,,,6.255106500000693,6.269887900038157,6.269887900038157,7.8378363000229,space,1.5653376000118442,None,,,,,False,yes,2024-02-13_14h38.03.940,choice_rrt,2023.2.3,60.0395780837007,2024-02-13 14h38.31.317326 +0100,
