﻿TargetImage,Practice_loop.thisRepN,Practice_loop.thisTrialN,Practice_loop.thisN,Practice_loop.thisIndex,thisRow.t,notes,welcome.started,Welcome_message.started,press_space.started,welcome.stopped,press_space.keys,press_space.rt,press_space.duration,instruction.started,instruction_text.started,key_space.started,instruction.stopped,key_space.keys,key_space.rt,key_space.duration,instruction2.started,text.started,instr2_space.started,response_square.started,response_plus.started,response_cross.started,instruction2.stopped,instr2_space.keys,instr2_space.rt,instr2_space.duration,trial.started,practice_cross.started,practice_plus.started,practice_square.started,left_far.started,right_mid.started,right_far.started,left_mid.started,target_image.started,target_image.stopped,trial.stopped,keyboard_response.keys,keyboard_response.corr,keyboard_response.rt,keyboard_response.duration,trialRespTimes,practice_feedback.started,feedback_text.started,keyboard_response_feedback_.started,practice_feedback.stopped,keyboard_response_feedback_.keys,keyboard_response_feedback_.rt,keyboard_response_feedback_.duration,end_screen.started,end_message.started,space_end.started,end_screen.stopped,space_end.keys,space_end.rt,space_end.duration,participant,session,gender,age,left-handed,do you like that session?,date,expName,psychopyVersion,frameRate,expStart,
,,,,,,,0.020593099994584918,0.02368809998733923,0.02368809998733923,0.9353364999988116,space,0.9054821000318043,None,,,,,,,,,,,,,,,,,,,,,,,,,,,,,,,,,,,,,,,,,,,,,,,,,,,,False,yes,2024-02-13_15h32.48.288,choice_rrt,2023.2.3,59.96170846156556,2024-02-13 15h32.56.306907 +0100,
,,,,,,,,,,,,,,0.9353723999811336,0.9510204999824055,0.9510204999824055,1.7019913999829441,space,0.7459007000434212,None,,,,,,,,,,,,,,,,,,,,,,,,,,,,,,,,,,,,,,,,,,,,,False,yes,2024-02-13_15h32.48.288,choice_rrt,2023.2.3,59.96170846156556,2024-02-13 15h32.56.306907 +0100,
,,,,,,,,,,,,,,,,,,,,,1.702025800012052,1.72467319999123,1.72467319999123,1.72467319999123,1.72467319999123,1.72467319999123,2.8190779999713413,space,1.0932003000052646,None,,,,,,,,,,,,,,,,,,,,,,,,,,,,,,,,,,,False,yes,2024-02-13_15h32.48.288,choice_rrt,2023.2.3,59.96170846156556,2024-02-13 15h32.56.306907 +0100,
../../stimuli/shapes/target_cross.jpg,0,0,0,1,2.945227199990768,,,,,,,,,,,,,,,,,,,,,,,,,,2.823581299977377,2.945227199990768,2.945227199990768,2.945227199990768,3.3353591000195593,3.3353591000195593,3.3353591000195593,3.3353591000195593,3.819392399978824,4.034681399993133,6.935462599969469,c,1,3.992632200010121,None,2.992632200010121,6.935816999990493,6.950796899967827,6.950796899967827,11.302006100013386,space,4.3358859999571,None,,,,,,,,,,,,False,yes,2024-02-13_15h32.48.288,choice_rrt,2023.2.3,59.96170846156556,2024-02-13 15h32.56.306907 +0100,
../../stimuli/shapes/target_square.jpg,0,1,1,5,11.352704400022049,,,,,,,,,,,,,,,,,,,,,,,,,,11.302778400015086,11.352704400022049,11.352704400022049,11.352704400022049,11.817912300000899,11.817912300000899,11.817912300000899,11.817912300000899,12.719014899979811,12.917910799966194,13.302310800005216,v,1,1.9410585000296123,None,0.5410585000296124,13.302752099989448,13.317410800023936,13.317410800023936,14.552093499980401,space,1.2317416000296362,None,,,,,,,,,,,,False,yes,2024-02-13_15h32.48.288,choice_rrt,2023.2.3,59.96170846156556,2024-02-13 15h32.56.306907 +0100,
../../stimuli/shapes/target_cross.jpg,0,2,2,3,14.597925300011411,,,,,,,,,,,,,,,,,,,,,,,,,,14.552394700003788,14.597925300011411,14.597925300011411,14.597925300011411,15.067644399998244,15.067644399998244,15.067644399998244,15.067644399998244,16.368919699976686,16.568385799997486,16.96884390001651,c,1,2.3699022000073455,None,0.5699022000073455,16.96929390000878,16.984192900010385,16.984192900010385,18.401897399977315,space,1.4072841000161134,None,,,,,,,,,,,,False,yes,2024-02-13_15h32.48.288,choice_rrt,2023.2.3,59.96170846156556,2024-02-13 15h32.56.306907 +0100,
../../stimuli/shapes/target_square.jpg,0,3,3,2,18.460308499983512,,,,,,,,,,,,,,,,,,,,,,,,,,18.402466500003356,18.460308499983512,18.460308499983512,18.460308499983512,18.918037399998866,18.918037399998866,18.918037399998866,18.918037399998866,19.80203129997244,20.001652300008573,20.403229399991687,v,1,1.9370968000148423,None,0.5370968000148424,20.403511799988337,20.417488600010984,20.417488600010984,21.41892620001454,space,0.9988081000046805,None,,,,,,,,,,,,False,yes,2024-02-13_15h32.48.288,choice_rrt,2023.2.3,59.96170846156556,2024-02-13 15h32.56.306907 +0100,
../../stimuli/shapes/target_plus.jpg,0,4,4,4,21.466016400023364,,,,,,,,,,,,,,,,,,,,,,,,,,21.41950859996723,21.466016400023364,21.466016400023364,21.466016400023364,21.93471679999493,21.93471679999493,21.93471679999493,21.93471679999493,23.019021400017664,23.218269200006034,23.61923419998493,v,0,2.144904699991457,None,0.5449046999914571,23.619703600008506,23.63447210000595,23.63447210000595,25.168584399973042,space,1.5180785999982618,None,,,,,,,,,,,,False,yes,2024-02-13_15h32.48.288,choice_rrt,2023.2.3,59.96170846156556,2024-02-13 15h32.56.306907 +0100,
../../stimuli/shapes/target_plus.jpg,0,5,5,0,25.214263500005472,,,,,,,,,,,,,,,,,,,,,,,,,,25.168869699991774,25.214263500005472,25.214263500005472,25.214263500005472,25.667931100004353,25.667931100004353,25.667931100004353,25.667931100004353,26.16872949997196,26.368062599969562,26.768964099988807,b,1,1.5472698000376113,None,0.5472698000376113,26.769263499998488,26.784213399980217,26.784213399980217,27.968570599972736,space,1.1740926000056788,None,,,,,,,,,,,,False,yes,2024-02-13_15h32.48.288,choice_rrt,2023.2.3,59.96170846156556,2024-02-13 15h32.56.306907 +0100,
,,,,,,,,,,,,,,,,,,,,,,,,,,,,,,,,,,,,,,,,,,,,,,,,,,,,,,27.96878639998613,27.984375500003807,27.984375500003807,29.118868799996562,space,1.1285503000253811,None,,,,,False,yes,2024-02-13_15h32.48.288,choice_rrt,2023.2.3,59.96170846156556,2024-02-13 15h32.56.306907 +0100,
