﻿thisRow.t,notes,welcome.started,Welcome_message.started,press_space.started,welcome.stopped,press_space.keys,press_space.rt,press_space.duration,instruction.started,instruction_text.started,key_space.started,instruction.stopped,key_space.keys,key_space.rt,key_space.duration,instruction2.started,text.started,instr2_space.started,response_square.started,response_plus.started,response_cross.started,instruction2.stopped,instr2_space.keys,instr2_space.rt,instr2_space.duration,trial.started,practice_cross.started,practice_plus.started,practice_square.started,target_response.started,left_far.started,right_mid.started,right_far.started,left_mid.started,target_image.started,target_image.stopped,participant,session,gender,age,left-handed,do you like that session?,date,expName,psychopyVersion,frameRate,expStart,
,,0.1486416999832727,0.2756729999673553,0.2756729999673553,1.8313370000105351,space,1.5539832999929786,None,,,,,,,,,,,,,,,,,,,,,,,,,,,,,,,,,False,yes,2024-02-13_14h36.36.596,choice_rrt,2023.2.3,60.36278029624346,2024-02-13 14h36.45.281679 +0100,
,,,,,,,,,1.83136100001866,1.8462826000177301,1.8462826000177301,2.5656685999711044,space,0.7067028000019491,None,,,,,,,,,,,,,,,,,,,,,,,,,,False,yes,2024-02-13_14h36.36.596,choice_rrt,2023.2.3,60.36278029624346,2024-02-13 14h36.45.281679 +0100,
,,,,,,,,,,,,,,,,2.565689300012309,2.583698500005994,2.583698500005994,2.583698500005994,2.583698500005994,2.583698500005994,3.2479816999984905,space,0.6537083000293933,None,,,,,,,,,,,,,,,,False,yes,2024-02-13_14h36.36.596,choice_rrt,2023.2.3,60.36278029624346,2024-02-13 14h36.45.281679 +0100,
,,,,,,,,,,,,,,,,,,,,,,,,,,3.248003399989102,3.2653266999986954,3.2653266999986954,3.2653266999986954,3.2653266999986954,3.764663300011307,3.764663300011307,3.764663300011307,3.764663300011307,3.964227700023912,4.19694370002253,,,,,,,,,,,,
