﻿TargetImage,Practice_loop.thisRepN,Practice_loop.thisTrialN,Practice_loop.thisN,Practice_loop.thisIndex,thisRow.t,notes,welcome.started,Welcome_message.started,press_space.started,welcome.stopped,press_space.keys,press_space.rt,press_space.duration,instruction.started,instruction_text.started,key_space.started,instruction.stopped,key_space.keys,key_space.rt,key_space.duration,instruction2.started,text.started,instr2_space.started,response_square.started,response_plus.started,response_cross.started,instruction2.stopped,instr2_space.keys,instr2_space.rt,instr2_space.duration,trial.started,practice_cross.started,practice_plus.started,practice_square.started,target_response.started,left_far.started,right_mid.started,right_far.started,left_mid.started,target_image.started,target_image.stopped,trial.stopped,target_response.keys,target_response.rt,target_response.duration,end_screen.started,end_message.started,space_end.started,end_screen.stopped,space_end.keys,space_end.rt,space_end.duration,participant,session,gender,age,left-handed,do you like that session?,date,expName,psychopyVersion,frameRate,expStart,
,,,,,,,0.02020050003193319,0.02335480001056567,0.02335480001056567,1.023754900030326,space,0.9994862000457942,None,,,,,,,,,,,,,,,,,,,,,,,,,,,,,,,,,,,,,,,,,,,,False,yes,2024-02-13_14h59.21.811,choice_rrt,2023.2.3,60.356222425019574,2024-02-13 14h59.29.996582 +0100,
,,,,,,,,,,,,,,1.0237907000118867,1.0392402000143193,1.0392402000143193,1.7909355000010692,space,0.7451533999992535,None,,,,,,,,,,,,,,,,,,,,,,,,,,,,,,,,,,,,,False,yes,2024-02-13_14h59.21.811,choice_rrt,2023.2.3,60.356222425019574,2024-02-13 14h59.29.996582 +0100,
,,,,,,,,,,,,,,,,,,,,,1.790969000023324,1.8139546000165865,1.8139546000165865,1.8139546000165865,1.8139546000165865,1.8139546000165865,2.741873100050725,space,0.9254867000272498,None,,,,,,,,,,,,,,,,,,,,,,,,,,,False,yes,2024-02-13_14h59.21.811,choice_rrt,2023.2.3,60.356222425019574,2024-02-13 14h59.29.996582 +0100,
../../stimuli/shapes/target_plus.jpg,0,0,0,0,2.8530134000466205,,,,,,,,,,,,,,,,,,,,,,,,,,2.745738900033757,2.8530134000466205,2.8530134000466205,2.8530134000466205,2.8530134000466205,3.2574406000203453,3.2574406000203453,3.2574406000203453,3.2574406000203453,3.757967000012286,3.973120100039523,5.740718400047626,c,2.878255999996327,None,,,,,,,,,,,,False,yes,2024-02-13_14h59.21.811,choice_rrt,2023.2.3,60.356222425019574,2024-02-13 14h59.29.996582 +0100,
../../stimuli/shapes/target_cross.jpg,0,1,1,3,5.782666400016751,,,,,,,,,,,,,,,,,,,,,,,,,,5.741099400038365,5.782666400016751,5.782666400016751,5.782666400016751,5.782666400016751,6.256762200035155,6.256762200035155,6.256762200035155,6.256762200035155,6.7568547000410035,6.956449400051497,8.890803100017365,b,3.0998303999658674,None,,,,,,,,,,,,False,yes,2024-02-13_14h59.21.811,choice_rrt,2023.2.3,60.356222425019574,2024-02-13 14h59.29.996582 +0100,
../../stimuli/shapes/target_square.jpg,0,2,2,5,8.936304700036999,,,,,,,,,,,,,,,,,,,,,,,,,,8.89138450002065,8.936304700036999,8.936304700036999,8.936304700036999,8.936304700036999,9.406469800043851,9.406469800043851,9.406469800043851,9.406469800043851,10.107393900048919,10.306522600003518,10.607402299996465,v,1.6574921000283211,None,,,,,,,,,,,,False,yes,2024-02-13_14h59.21.811,choice_rrt,2023.2.3,60.356222425019574,2024-02-13 14h59.29.996582 +0100,
../../stimuli/shapes/target_square.jpg,0,3,3,2,10.652239400020335,,,,,,,,,,,,,,,,,,,,,,,,,,10.607737000042107,10.652239400020335,10.652239400020335,10.652239400020335,10.652239400020335,11.122958399995696,11.122958399995696,11.122958399995696,11.122958399995696,12.223915000038687,12.423005200049374,12.791023100027815,v,2.1350307000102475,None,,,,,,,,,,,,False,yes,2024-02-13_14h59.21.811,choice_rrt,2023.2.3,60.356222425019574,2024-02-13 14h59.29.996582 +0100,
../../stimuli/shapes/target_plus.jpg,0,4,4,4,12.83506860001944,,,,,,,,,,,,,,,,,,,,,,,,,,12.791295200004242,12.83506860001944,12.83506860001944,12.83506860001944,12.83506860001944,13.307825800031424,13.307825800031424,13.307825800031424,13.307825800031424,14.206914700043853,14.406702200009022,15.65750020003179,b,2.8184547999990173,None,,,,,,,,,,,,False,yes,2024-02-13_14h59.21.811,choice_rrt,2023.2.3,60.356222425019574,2024-02-13 14h59.29.996582 +0100,
../../stimuli/shapes/target_cross.jpg,0,5,5,1,15.716415200033225,,,,,,,,,,,,,,,,,,,,,,,,,,15.65810010000132,15.716415200033225,15.716415200033225,15.716415200033225,15.716415200033225,16.157112700049765,16.157112700049765,16.157112700049765,16.157112700049765,17.474054200050887,17.68956020002952,17.940663600049447,c,2.2121026000240818,None,,,,,,,,,,,,False,yes,2024-02-13_14h59.21.811,choice_rrt,2023.2.3,60.356222425019574,2024-02-13 14h59.29.996582 +0100,
,,,,,,,,,,,,,,,,,,,,,,,,,,,,,,,,,,,,,,,,,,,,,,17.94100560003426,17.956036500050686,17.956036500050686,19.890249100048095,space,1.919294599967543,None,,,,,False,yes,2024-02-13_14h59.21.811,choice_rrt,2023.2.3,60.356222425019574,2024-02-13 14h59.29.996582 +0100,
