﻿thisRow.t,notes,instruction.started,Welcome_message.started,press_space.started,press_space_2.started,instruction.stopped,press_space.keys,press_space_2.keys,press_space_2.rt,press_space_2.duration,participant,session,gender,age,left-handed,do you like that session?,date,expName,psychopyVersion,frameRate,expStart,
,,0.0023929000017233193,0.004516799992416054,0.004516799992416054,0.004516799992416054,4.466702100005932,None,,,,,,,,False,yes,2024-02-13_10h55.35.644,choice_rrt,2023.2.3,59.99250092917062,2024-02-13 10h55.41.681798 +0100,
,,,,,,,,space,4.461242399993353,None,,,,,False,yes,2024-02-13_10h55.35.644,choice_rrt,2023.2.3,59.99250092917062,2024-02-13 10h55.41.681798 +0100,
